{
  "count": 51,
  "next": "http://researchnet.ictedge.org/submission/?limit=20&offset=20",
  "previous": null,
  "results": [
    {
      "id": 109,
      "participant": {
        "username": "testuser0",
        "email": "fakeemail@rti.org",
        "first_name": "Chris",
        "last_name": "Smith",
        "gender": "Male",
        "dob": "1971-09-04"
      },
      "time_start": "2016-01-14T14:04:14Z",
      "time_complete": "2016-01-14T14:04:14Z",
      "timestamp": "2016-01-14T14:04:14Z",
      "device_id": "TEST-49D5-4CAD-AE42-E5CE922A3346",
      "response": {
        "mood image": "6",
        "mood scale": "8",
        "mood cateogry": "fine"
      },
      "lat": 39.7724466,
      "long": -105.9249464,
      "place": "Parshall, CO US"
    },
    {
      "id": 110,
      "participant": {
        "username": "testuser0",
        "email": "fakeemail@rti.org",
        "first_name": "Chris",
        "last_name": "Smith",
        "gender": "Male",
        "dob": "1971-09-04"
      },
      "time_start": "2016-04-06T08:47:40Z",
      "time_complete": "2016-04-06T08:47:40Z",
      "timestamp": "2016-04-06T08:47:40Z",
      "device_id": "TEST-49D5-4CAD-AE42-E5CE922A3346",
      "response": {
        "mood image": "2",
        "mood scale": "6",
        "mood cateogry": "asleep"
      },
      "lat": 40.5895466,
      "long": -105.0751243,
      "place": "Fort Collins, CO US"
    },
    {
      "id": 111,
      "participant": {
        "username": "testuser0",
        "email": "fakeemail@rti.org",
        "first_name": "Chris",
        "last_name": "Smith",
        "gender": "Male",
        "dob": "1971-09-04"
      },
      "time_start": "2016-02-07T04:04:04Z",
      "time_complete": "2016-02-07T04:04:04Z",
      "timestamp": "2016-02-07T04:04:04Z",
      "device_id": "TEST-49D5-4CAD-AE42-E5CE922A3346",
      "response": {
        "mood image": "1",
        "mood scale": "5",
        "mood cateogry": "fine"
      },
      "lat": 38.1490189,
      "long": -106.1444289,
      "place": "Villa Grove, CO US"
    },
    {
      "id": 112,
      "participant": {
        "username": "testuser0",
        "email": "fakeemail@rti.org",
        "first_name": "Chris",
        "last_name": "Smith",
        "gender": "Male",
        "dob": "1971-09-04"
      },
      "time_start": "2016-02-13T19:50:50Z",
      "time_complete": "2016-02-13T19:50:50Z",
      "timestamp": "2016-02-13T19:50:50Z",
      "device_id": "TEST-49D5-4CAD-AE42-E5CE922A3346",
      "response": {
        "mood image": "4",
        "mood scale": "1",
        "mood cateogry": "fine"
      },
      "lat": 40.5895466,
      "long": -105.0751243,
      "place": "Fort Collins, CO US"
    },
    {
      "id": 113,
      "participant": {
        "username": "testuser0",
        "email": "fakeemail@rti.org",
        "first_name": "Chris",
        "last_name": "Smith",
        "gender": "Male",
        "dob": "1971-09-04"
      },
      "time_start": "2016-02-05T22:02:07Z",
      "time_complete": "2016-02-05T22:02:07Z",
      "timestamp": "2016-02-05T22:02:07Z",
      "device_id": "TEST-49D5-4CAD-AE42-E5CE922A3346",
      "response": {
        "mood image": "1",
        "mood scale": "5",
        "mood cateogry": "good"
      },
      "lat": 37.0017455,
      "long": -80.0249976,
      "place": "Callaway, VA US"
    },
    {
      "id": 114,
      "participant": {
        "username": "testuser0",
        "email": "fakeemail@rti.org",
        "first_name": "Chris",
        "last_name": "Smith",
        "gender": "Male",
        "dob": "1971-09-04"
      },
      "time_start": "2016-01-06T05:20:46Z",
      "time_complete": "2016-01-06T05:20:46Z",
      "timestamp": "2016-01-06T05:20:46Z",
      "device_id": "TEST-49D5-4CAD-AE42-E5CE922A3346",
      "response": {
        "mood image": "6",
        "mood scale": "4",
        "mood cateogry": "bad"
      },
      "lat": 35.9661857,
      "long": -79.1067084,
      "place": "Chapel Hill, NC US"
    },
    {
      "id": 115,
      "participant": {
        "username": "testuser1",
        "email": "fakeemail@rti.org",
        "first_name": "Sue",
        "last_name": "Smith",
        "gender": "Female",
        "dob": "1983-03-04"
      },
      "time_start": "2016-04-09T02:09:00Z",
      "time_complete": "2016-04-09T02:09:00Z",
      "timestamp": "2016-04-09T02:09:00Z",
      "device_id": "TEST-49D5-4CAD-AE42-E5CE922A3346",
      "response": {
        "mood image": "0",
        "mood scale": "8",
        "mood cateogry": "unsure"
      },
      "lat": 38.7640021,
      "long": -104.1353041,
      "place": "Yoder, CO US"
    },
    {
      "id": 116,
      "participant": {
        "username": "testuser1",
        "email": "fakeemail@rti.org",
        "first_name": "Sue",
        "last_name": "Smith",
        "gender": "Female",
        "dob": "1983-03-04"
      },
      "time_start": "2016-05-30T07:13:37Z",
      "time_complete": "2016-05-30T07:13:37Z",
      "timestamp": "2016-05-30T07:13:37Z",
      "device_id": "TEST-49D5-4CAD-AE42-E5CE922A3346",
      "response": {
        "mood image": "1",
        "mood scale": "8",
        "mood cateogry": "bad"
      },
      "lat": 39.7724466,
      "long": -105.9249464,
      "place": "Parshall, CO US"
    },
    {
      "id": 117,
      "participant": {
        "username": "testuser1",
        "email": "fakeemail@rti.org",
        "first_name": "Sue",
        "last_name": "Smith",
        "gender": "Female",
        "dob": "1983-03-04"
      },
      "time_start": "2016-05-19T15:06:22Z",
      "time_complete": "2016-05-19T15:06:22Z",
      "timestamp": "2016-05-19T15:06:22Z",
      "device_id": "TEST-49D5-4CAD-AE42-E5CE922A3346",
      "response": {
        "mood image": "0",
        "mood scale": "7",
        "mood cateogry": "unsure"
      },
      "lat": 45.5423508,
      "long": -122.7945071,
      "place": "Portland, OR US"
    },
    {
      "id": 118,
      "participant": {
        "username": "testuser1",
        "email": "fakeemail@rti.org",
        "first_name": "Sue",
        "last_name": "Smith",
        "gender": "Female",
        "dob": "1983-03-04"
      },
      "time_start": "2016-05-21T23:26:27Z",
      "time_complete": "2016-05-21T23:26:27Z",
      "timestamp": "2016-05-21T23:26:27Z",
      "device_id": "TEST-49D5-4CAD-AE42-E5CE922A3346",
      "response": {
        "mood image": "3",
        "mood scale": "5",
        "mood cateogry": "good"
      },
      "lat": 36.0017455,
      "long": -79.0249976,
      "place": "Durham, NC US"
    },
    {
      "id": 119,
      "participant": {
        "username": "testuser2",
        "email": "fakeemail@rti.org",
        "first_name": "Sue",
        "last_name": "Thomas",
        "gender": "Male",
        "dob": "1986-08-24"
      },
      "time_start": "2016-05-30T08:14:23Z",
      "time_complete": "2016-05-30T08:14:23Z",
      "timestamp": "2016-05-30T08:14:23Z",
      "device_id": "TEST-49D5-4CAD-AE42-E5CE922A3346",
      "response": {
        "mood image": "3",
        "mood scale": "9",
        "mood cateogry": "bad"
      },
      "lat": 37.0017455,
      "long": -80.0249976,
      "place": "Callaway, VA US"
    },
    {
      "id": 120,
      "participant": {
        "username": "testuser3",
        "email": "fakeemail@rti.org",
        "first_name": "Piper",
        "last_name": "Roberts",
        "gender": "Male",
        "dob": "1980-07-14"
      },
      "time_start": "2016-04-30T19:57:02Z",
      "time_complete": "2016-04-30T19:57:02Z",
      "timestamp": "2016-04-30T19:57:02Z",
      "device_id": "TEST-49D5-4CAD-AE42-E5CE922A3346",
      "response": {
        "mood image": "4",
        "mood scale": "6",
        "mood cateogry": "bad"
      },
      "lat": 39.1490189,
      "long": -107.1444289,
      "place": "Marble, CO US"
    },
    {
      "id": 121,
      "participant": {
        "username": "testuser3",
        "email": "fakeemail@rti.org",
        "first_name": "Piper",
        "last_name": "Roberts",
        "gender": "Male",
        "dob": "1980-07-14"
      },
      "time_start": "2016-05-16T00:23:53Z",
      "time_complete": "2016-05-16T00:23:53Z",
      "timestamp": "2016-05-16T00:23:53Z",
      "device_id": "TEST-49D5-4CAD-AE42-E5CE922A3346",
      "response": {
        "mood image": "5",
        "mood scale": "8",
        "mood cateogry": "good"
      },
      "lat": 39.1490189,
      "long": -107.1444289,
      "place": "Marble, CO US"
    },
    {
      "id": 122,
      "participant": {
        "username": "testuser3",
        "email": "fakeemail@rti.org",
        "first_name": "Piper",
        "last_name": "Roberts",
        "gender": "Male",
        "dob": "1980-07-14"
      },
      "time_start": "2016-04-29T23:29:25Z",
      "time_complete": "2016-04-29T23:29:25Z",
      "timestamp": "2016-04-29T23:29:25Z",
      "device_id": "TEST-49D5-4CAD-AE42-E5CE922A3346",
      "response": {
        "mood image": "2",
        "mood scale": "1",
        "mood cateogry": "good"
      },
      "lat": 35.9661857,
      "long": -79.1067084,
      "place": "Chapel Hill, NC US"
    },
    {
      "id": 123,
      "participant": {
        "username": "testuser3",
        "email": "fakeemail@rti.org",
        "first_name": "Piper",
        "last_name": "Roberts",
        "gender": "Male",
        "dob": "1980-07-14"
      },
      "time_start": "2016-01-08T00:30:43Z",
      "time_complete": "2016-01-08T00:30:43Z",
      "timestamp": "2016-01-08T00:30:43Z",
      "device_id": "TEST-49D5-4CAD-AE42-E5CE922A3346",
      "response": {
        "mood image": "1",
        "mood scale": "7",
        "mood cateogry": "no response"
      },
      "lat": 45.5423508,
      "long": -122.7945071,
      "place": "Portland, OR US"
    },
    {
      "id": 124,
      "participant": {
        "username": "testuser3",
        "email": "fakeemail@rti.org",
        "first_name": "Piper",
        "last_name": "Roberts",
        "gender": "Male",
        "dob": "1980-07-14"
      },
      "time_start": "2016-02-06T12:55:29Z",
      "time_complete": "2016-02-06T12:55:29Z",
      "timestamp": "2016-02-06T12:55:29Z",
      "device_id": "TEST-49D5-4CAD-AE42-E5CE922A3346",
      "response": {
        "mood image": "0",
        "mood scale": "5",
        "mood cateogry": "good"
      },
      "lat": 39.7724466,
      "long": -105.9249464,
      "place": "Parshall, CO US"
    },
    {
      "id": 125,
      "participant": {
        "username": "testuser3",
        "email": "fakeemail@rti.org",
        "first_name": "Piper",
        "last_name": "Roberts",
        "gender": "Male",
        "dob": "1980-07-14"
      },
      "time_start": "2016-03-06T08:00:51Z",
      "time_complete": "2016-03-06T08:00:51Z",
      "timestamp": "2016-03-06T08:00:51Z",
      "device_id": "TEST-49D5-4CAD-AE42-E5CE922A3346",
      "response": {
        "mood image": "3",
        "mood scale": "7",
        "mood cateogry": "no response"
      },
      "lat": 35.7724466,
      "long": -103.9249464,
      "place": "Mosquero, NM US"
    },
    {
      "id": 126,
      "participant": {
        "username": "testuser3",
        "email": "fakeemail@rti.org",
        "first_name": "Piper",
        "last_name": "Roberts",
        "gender": "Male",
        "dob": "1980-07-14"
      },
      "time_start": "2016-01-19T09:20:46Z",
      "time_complete": "2016-01-19T09:20:46Z",
      "timestamp": "2016-01-19T09:20:46Z",
      "device_id": "TEST-49D5-4CAD-AE42-E5CE922A3346",
      "response": {
        "mood image": "8",
        "mood scale": "0",
        "mood cateogry": "unsure"
      },
      "lat": 39.7640021,
      "long": -105.1353041,
      "place": "Wheat Ridge, CO US"
    },
    {
      "id": 127,
      "participant": {
        "username": "testuser4",
        "email": "fakeemail@rti.org",
        "first_name": "Pat",
        "last_name": "Jones",
        "gender": "Male",
        "dob": "1981-06-04"
      },
      "time_start": "2016-03-12T16:33:26Z",
      "time_complete": "2016-03-12T16:33:26Z",
      "timestamp": "2016-03-12T16:33:26Z",
      "device_id": "TEST-49D5-4CAD-AE42-E5CE922A3346",
      "response": {
        "mood image": "7",
        "mood scale": "4",
        "mood cateogry": "fine"
      },
      "lat": 39.7724466,
      "long": -105.9249464,
      "place": "Parshall, CO US"
    },
    {
      "id": 128,
      "participant": {
        "username": "testuser4",
        "email": "fakeemail@rti.org",
        "first_name": "Pat",
        "last_name": "Jones",
        "gender": "Male",
        "dob": "1981-06-04"
      },
      "time_start": "2016-01-18T00:32:44Z",
      "time_complete": "2016-01-18T00:32:44Z",
      "timestamp": "2016-01-18T00:32:44Z",
      "device_id": "TEST-49D5-4CAD-AE42-E5CE922A3346",
      "response": {
        "mood image": "3",
        "mood scale": "3",
        "mood cateogry": "fine"
      },
      "lat": 39.7640021,
      "long": -105.1353041,
      "place": "Wheat Ridge, CO US"
    }
  ]
}